// Jest Snapshot v1, https://goo.gl/fbAQLP

exports[`Input Basic component tests snapshot matches 1`] = `
<input
  className="hhgttg__input"
  onBlur={[MockFunction]}
  onChange={[MockFunction]}
  onKeyDown={[MockFunction]}
  type="text"
/>
`;
