// Jest Snapshot v1, https://goo.gl/fbAQLP

exports[`Button Basic component tests snapshot matches 1`] = `
<button
  className="hhgttg__text"
  onClick={[MockFunction]}
  title="click to edit"
>
  foo
</button>
`;
